%YAML 1.1
%TAG !u! tag:unity3d.com,2011:
--- !u!1001 &100100000
Prefab:
  m_ObjectHideFlags: 1
  serializedVersion: 2
  m_Modification:
    m_TransformParent: {fileID: 0}
    m_Modifications: []
    m_RemovedComponents: []
  m_ParentPrefab: {fileID: 0}
  m_RootGameObject: {fileID: 1636448375536026}
  m_IsPrefabParent: 1
--- !u!1 &1636448375536026
GameObject:
  m_ObjectHideFlags: 0
  m_PrefabParentObject: {fileID: 0}
  m_PrefabInternal: {fileID: 100100000}
  serializedVersion: 5
  m_Component:
  - component: {fileID: 4526625733650528}
  - component: {fileID: 58674624813885068}
  - component: {fileID: 114152727162850430}
  - component: {fileID: 114348986869194514}
  - component: {fileID: 114719960513199796}
  m_Layer: 0
  m_Name: Atlas Projectile
  m_TagString: Untagged
  m_Icon: {fileID: 0}
  m_NavMeshLayer: 0
  m_StaticEditorFlags: 0
  m_IsActive: 1
--- !u!4 &4526625733650528
Transform:
  m_ObjectHideFlags: 1
  m_PrefabParentObject: {fileID: 0}
  m_PrefabInternal: {fileID: 100100000}
  m_GameObject: {fileID: 1636448375536026}
  m_LocalRotation: {x: 0, y: 0, z: 0, w: 1}
  m_LocalPosition: {x: 0.08963132, y: 2.3261635, z: 0}
  m_LocalScale: {x: 1, y: 1, z: 1}
  m_Children: []
  m_Father: {fileID: 0}
  m_RootOrder: 0
  m_LocalEulerAnglesHint: {x: 0, y: 0, z: 0}
--- !u!58 &58674624813885068
CircleCollider2D:
  m_ObjectHideFlags: 1
  m_PrefabParentObject: {fileID: 0}
  m_PrefabInternal: {fileID: 100100000}
  m_GameObject: {fileID: 1636448375536026}
  m_Enabled: 1
  m_Density: 1
  m_Material: {fileID: 0}
  m_IsTrigger: 1
  m_UsedByEffector: 0
  m_UsedByComposite: 0
  m_Offset: {x: 0, y: 0}
  serializedVersion: 2
  m_Radius: 0.02
--- !u!114 &114152727162850430
MonoBehaviour:
  m_ObjectHideFlags: 1
  m_PrefabParentObject: {fileID: 0}
  m_PrefabInternal: {fileID: 100100000}
  m_GameObject: {fileID: 1636448375536026}
  m_Enabled: 1
  m_EditorHideFlags: 0
  m_Script: {fileID: 11500000, guid: 1dfac23142f84087b7f3d17b0f7483a2, type: 3}
  m_Name: 
  m_EditorClassIdentifier: 
  serializationData:
    SerializedFormat: 2
    SerializedBytes: 
    ReferencedUnityObjects: []
    SerializedBytesString: 
    Prefab: {fileID: 0}
    PrefabModificationsReferencedUnityObjects: []
    PrefabModifications: []
    SerializationNodes:
    - Name: Flags
      Entry: 3
      Data: 0
    - Name: Tags
      Entry: 7
      Data: 0|System.Collections.Generic.List`1[[System.String, mscorlib]], mscorlib
    - Name: 
      Entry: 12
      Data: 0
    - Name: 
      Entry: 13
      Data: 
    - Name: 
      Entry: 8
      Data: 
--- !u!114 &114348986869194514
MonoBehaviour:
  m_ObjectHideFlags: 1
  m_PrefabParentObject: {fileID: 0}
  m_PrefabInternal: {fileID: 100100000}
  m_GameObject: {fileID: 1636448375536026}
  m_Enabled: 1
  m_EditorHideFlags: 0
  m_Script: {fileID: 11500000, guid: 59ca5e71a24f469385cd92dcc078b6a4, type: 3}
  m_Name: 
  m_EditorClassIdentifier: 
  serializationData:
    SerializedFormat: 2
    SerializedBytes: 
    ReferencedUnityObjects:
    - {fileID: 21300000, guid: 63ce4482d10fe3f42b054c46da44da6a, type: 3}
    SerializedBytesString: 
    Prefab: {fileID: 0}
    PrefabModificationsReferencedUnityObjects: []
    PrefabModifications: []
    SerializationNodes:
    - Name: Preview
      Entry: 10
      Data: 0
    - Name: IsStatic
      Entry: 5
      Data: false
    - Name: Mass
      Entry: 4
      Data: 0
    - Name: UseCustomGravity
      Entry: 5
      Data: false
    - Name: EnableGravity
      Entry: 5
      Data: false
    - Name: CustomGravity
      Entry: 4
      Data: 0
    - Name: RoofDetector
      Entry: 7
      Data: 0|CircleTriggerZone, Assembly-CSharp
    - Name: Offset
      Entry: 7
      Data: UnityEngine.Vector2, UnityEngine
    - Name: 
      Entry: 4
      Data: 0
    - Name: 
      Entry: 4
      Data: 0
    - Name: 
      Entry: 8
      Data: 
    - Name: Radius
      Entry: 4
      Data: 0
    - Name: 
      Entry: 8
      Data: 
    - Name: GroundDetector
      Entry: 7
      Data: 1|CircleTriggerZone, Assembly-CSharp
    - Name: Offset
      Entry: 7
      Data: UnityEngine.Vector2, UnityEngine
    - Name: 
      Entry: 4
      Data: 0
    - Name: 
      Entry: 4
      Data: 0
    - Name: 
      Entry: 8
      Data: 
    - Name: Radius
      Entry: 4
      Data: 0
    - Name: 
      Entry: 8
      Data: 
    - Name: WallDetector
      Entry: 7
      Data: 2|BoxTriggerZone, Assembly-CSharp
    - Name: Offset
      Entry: 7
      Data: UnityEngine.Vector2, UnityEngine
    - Name: 
      Entry: 4
      Data: 0
    - Name: 
      Entry: 4
      Data: 0
    - Name: 
      Entry: 8
      Data: 
    - Name: Size
      Entry: 7
      Data: UnityEngine.Vector2, UnityEngine
    - Name: 
      Entry: 4
      Data: 0
    - Name: 
      Entry: 4
      Data: 0
    - Name: 
      Entry: 8
      Data: 
    - Name: 
      Entry: 8
      Data: 
--- !u!114 &114719960513199796
MonoBehaviour:
  m_ObjectHideFlags: 1
  m_PrefabParentObject: {fileID: 0}
  m_PrefabInternal: {fileID: 100100000}
  m_GameObject: {fileID: 1636448375536026}
  m_Enabled: 1
  m_EditorHideFlags: 0
  m_Script: {fileID: 11500000, guid: d8ae8ef7263f4fb08b299761cb599c69, type: 3}
  m_Name: 
  m_EditorClassIdentifier: 
  serializationData:
    SerializedFormat: 2
    SerializedBytes: 
    ReferencedUnityObjects:
    - {fileID: 7400000, guid: e0d2a75bba7769745a6530ef4ec44c0c, type: 2}
    - {fileID: 7400000, guid: 0af6bed0a56440042bbafa3af5a5bd15, type: 2}
    SerializedBytesString: 
    Prefab: {fileID: 0}
    PrefabModificationsReferencedUnityObjects: []
    PrefabModifications: []
    SerializationNodes:
    - Name: IsInvulnerable
      Entry: 5
      Data: true
    - Name: Health
      Entry: 7
      Data: 0|Resource, Assembly-CSharp
    - Name: max
      Entry: 3
      Data: 1
    - Name: current
      Entry: 3
      Data: 1
    - Name: 
      Entry: 8
      Data: 
    - Name: IdleAnimation
      Entry: 10
      Data: 0
    - Name: DetonateMotion
      Entry: 10
      Data: 1
    - Name: ProjectileBehaviour
      Entry: 7
      Data: 1|ProjectileBehaviour, Assembly-CSharp
    - Name: RequiredFlagsToHit
      Entry: 3
      Data: 2
    - Name: HitInfo
      Entry: 7
      Data: 2|HitInfo, Assembly-CSharp
    - Name: Damage
      Entry: 3
      Data: 1
    - Name: Force
      Entry: 4
      Data: 2
    - Name: 
      Entry: 8
      Data: 
    - Name: Speed
      Entry: 4
      Data: 4
    - Name: Acceleration
      Entry: 4
      Data: 0
    - Name: MaxTimeAlive
      Entry: 4
      Data: 5
    - Name: FlyMotion
      Entry: 7
      Data: 3|BasicMotion, Assembly-CSharp
    - Name: Duration
      Entry: 4
      Data: 1
    - Name: 
      Entry: 8
      Data: 
    - Name: DetonateMotion
      Entry: 7
      Data: 4|BasicMotion, Assembly-CSharp
    - Name: Duration
      Entry: 4
      Data: 1
    - Name: 
      Entry: 8
      Data: 
    - Name: SticksOnHit
      Entry: 5
      Data: true
    - Name: 
      Entry: 8
      Data: 
